software/datatraces/codec_cg_gui.vcd
$date today $end
$timescale 1 ns $end
$scope module CODEC_CFG $end
$var integer 1 ! running $end
$var integer 1 " update_request $end
$var integer 1 # reset_n $end
$var integer 1 $ wr_request $end
$var integer 1 % busy $end
$var integer 1 & init_required $end
$var integer 1 ' SDA $end
$var integer 1 ( SCL $end
$var integer 4 ) word_no $end
$var integer 4 * state $end
$var integer 16 + datawr $end
$var integer 16 , bclk $end
$upscope $end
$enddefinitions $end
#0
$dumpvars
x!
x"
x#
x$
x%
x&
x'
x(
bx )
bx *
bx +
bx ,
$end
#1302
1!
1"
1#
1$
0%
0&
1'
1(
b1 )
b1 *
b100000010000 +
b0 ,
#2604
0"
1&
b1 ,
#3906
1%
b10 ,
#5208
0$
b11 ,
#6510
b0 ,
#7812
0'
b1 ,
#9114
0(
b10 ,
#10416
b11 ,
#11718
1(
b0 ,
#13020
b1 ,
#14322
0(
b10 ,
#15624
b11 ,
#16926
1(
b0 ,
#18228
b1 ,
#19530
0(
b10 ,
#20832
1'
b11 ,
#22134
1(
b0 ,
#23436
b1 ,
#24738
0(
b10 ,
#26040
b11 ,
#27342
1(
b0 ,
#28644
b1 ,
#29946
0(
b10 ,
#31248
0'
b11 ,
#32550
1(
b0 ,
#33852
b1 ,
#35154
0(
b10 ,
#36456
1'
b11 ,
#37758
1(
b0 ,
#39060
b1 ,
#40362
0(
b10 ,
#41664
0'
b11 ,
#42966
1(
b0 ,
#44268
b1 ,
#45570
0(
b10 ,
#46872
b11 ,
#48174
1(
b0 ,
#49476
b1 ,
#50778
0(
b10 ,
#52080
b11 ,
#53382
1(
b0 ,
#54684
b1 ,
#55986
1'
0(
b10 ,
#57288
0'
b11 ,
#58590
1(
b0 ,
#59892
b1 ,
#61194
0(
b10 ,
#62496
b11 ,
#63798
1(
b0 ,
#65100
b1 ,
#66402
0(
b10 ,
#67704
b11 ,
#69006
1(
b0 ,
#70308
b1 ,
#71610
0(
b10 ,
#72912
b11 ,
#74214
1(
b0 ,
#75516
b1 ,
#76818
0(
b10 ,
#78120
1'
b11 ,
#79422
1(
b0 ,
#80724
b1 ,
#82026
0(
b10 ,
#83328
0'
b11 ,
#84630
1(
b0 ,
#85932
b1 ,
#87234
0(
b10 ,
#88536
b11 ,
#89838
1(
b0 ,
#91140
b1 ,
#92442
0(
b10 ,
#93744
b11 ,
#95046
1(
b0 ,
#96348
b1 ,
#97650
0(
b10 ,
#98952
b11 ,
#100254
1(
b0 ,
#101556
b1 ,
#102858
1'
0(
b10 ,
#104160
0'
b11 ,
#105462
1(
b0 ,
#106764
b1 ,
#108066
0(
b10 ,
#109368
b11 ,
#110670
1(
b0 ,
#111972
b1 ,
#113274
0(
b10 ,
#114576
b11 ,
#115878
1(
b0 ,
#117180
b1 ,
#118482
0(
b10 ,
#119784
1'
b11 ,
#121086
1(
b0 ,
#122388
b1 ,
#123690
0(
b10 ,
#124992
0'
b11 ,
#126294
1(
b0 ,
#127596
b1 ,
#128898
0(
b10 ,
#130200
b11 ,
#131502
1(
b0 ,
#132804
b1 ,
#134106
0(
b10 ,
#135408
b11 ,
#136710
1(
b0 ,
#138012
b1 ,
#139314
0(
b10 ,
#140616
b11 ,
#141918
1(
b0 ,
#143220
b1 ,
#144522
0(
b10 ,
#145824
b11 ,
#147126
1(
b0 ,
#148428
b1 ,
#149730
1'
0(
b10 ,
#151032
0'
b11 ,
#152334
1(
b0 ,
#153636
1'
b1 ,
#154938
0%
b10 ,
#156240
1$
b0 )
b10001 +
b11 ,
#157542
b0 ,
#158844
b1 ,
#160146
1%
b10 ,
#161448
0$
b11 ,
#162750
b0 ,
#164052
0'
b1 ,
#165354
0(
b10 ,
#166656
b11 ,
#167958
1(
b0 ,
#169260
b1 ,
#170562
0(
b10 ,
#171864
b11 ,
#173166
1(
b0 ,
#174468
b1 ,
#175770
0(
b10 ,
#177072
1'
b11 ,
#178374
1(
b0 ,
#179676
b1 ,
#180978
0(
b10 ,
#182280
b11 ,
#183582
1(
b0 ,
#184884
b1 ,
#186186
0(
b10 ,
#187488
0'
b11 ,
#188790
1(
b0 ,
#190092
b1 ,
#191394
0(
b10 ,
#192696
1'
b11 ,
#193998
1(
b0 ,
#195300
b1 ,
#196602
0(
b10 ,
#197904
0'
b11 ,
#199206
1(
b0 ,
#200508
b1 ,
#201810
0(
b10 ,
#203112
b11 ,
#204414
1(
b0 ,
#205716
b1 ,
#207018
0(
b10 ,
#208320
b11 ,
#209622
1(
b0 ,
#210924
b1 ,
#212226
1'
0(
b10 ,
#213528
0'
b11 ,
#214830
1(
b0 ,
#216132
b1 ,
#217434
0(
b10 ,
#218736
b11 ,
#220038
1(
b0 ,
#221340
b1 ,
#222642
0(
b10 ,
#223944
b11 ,
#225246
1(
b0 ,
#226548
b1 ,
#227850
0(
b10 ,
#229152
b11 ,
#230454
1(
b0 ,
#231756
b1 ,
#233058
0(
b10 ,
#234360
b11 ,
#235662
1(
b0 ,
#236964
b1 ,
#238266
0(
b10 ,
#239568
b11 ,
#240870
1(
b0 ,
#242172
b1 ,
#243474
0(
b10 ,
#244776
b11 ,
#246078
1(
b0 ,
#247380
b1 ,
#248682
0(
b10 ,
#249984
b11 ,
#251286
1(
b0 ,
#252588
b1 ,
#253890
0(
b10 ,
#255192
b11 ,
#256494
1(
b0 ,
#257796
b1 ,
#259098
1'
0(
b10 ,
#260400
0'
b11 ,
#261702
1(
b0 ,
#263004
b1 ,
#264306
0(
b10 ,
#265608
b11 ,
#266910
1(
b0 ,
#268212
b1 ,
#269514
0(
b10 ,
#270816
b11 ,
#272118
1(
b0 ,
#273420
b1 ,
#274722
0(
b10 ,
#276024
1'
b11 ,
#277326
1(
b0 ,
#278628
b1 ,
#279930
0(
b10 ,
#281232
0'
b11 ,
#282534
1(
b0 ,
#283836
b1 ,
#285138
0(
b10 ,
#286440
b11 ,
#287742
1(
b0 ,
#289044
b1 ,
#290346
0(
b10 ,
#291648
b11 ,
#292950
1(
b0 ,
#294252
b1 ,
#295554
0(
b10 ,
#296856
1'
b11 ,
#298158
1(
b0 ,
#299460
b1 ,
#300762
0'
0(
b10 ,
#302064
b11 ,
#303366
1(
b0 ,
#304668
b1 ,
#305970
1'
0(
b10 ,
#307272
0'
b11 ,
#308574
1(
b0 ,
#309876
1'
b1 ,
#311178
0%
b10 ,
#312480
0!
b0 *
b11 ,
#313782
1$
0&
b111 )
b1 *
b1111000000000 +
b0 ,
#315084
b1 ,
#316386
1%
b10 ,
#317688
0$
b11 ,
#318990
b0 ,
#320292
0'
b1 ,
#321594
0(
b10 ,
#322896
b11 ,
#324198
1(
b0 ,
#325500
b1 ,
#326802
0(
b10 ,
#328104
b11 ,
#329406
1(
b0 ,
#330708
b1 ,
#332010
0(
b10 ,
#333312
1'
b11 ,
#334614
1(
b0 ,
#335916
b1 ,
#337218
0(
b10 ,
#338520
b11 ,
#339822
1(
b0 ,
#341124
b1 ,
#342426
0(
b10 ,
#343728
0'
b11 ,
#345030
1(
b0 ,
#346332
b1 ,
#347634
0(
b10 ,
#348936
1'
b11 ,
#350238
1(
b0 ,
#351540
b1 ,
#352842
0(
b10 ,
#354144
0'
b11 ,
#355446
1(
b0 ,
#356748
b1 ,
#358050
0(
b10 ,
#359352
b11 ,
#360654
1(
b0 ,
#361956
b1 ,
#363258
0(
b10 ,
#364560
b11 ,
#365862
1(
b0 ,
#367164
b1 ,
#368466
1'
0(
b10 ,
#369768
0'
b11 ,
#371070
1(
b0 ,
#372372
b1 ,
#373674
0(
b10 ,
#374976
b11 ,
#376278
1(
b0 ,
#377580
b1 ,
#378882
0(
b10 ,
#380184
b11 ,
#381486
1(
b0 ,
#382788
b1 ,
#384090
0(
b10 ,
#385392
1'
b11 ,
#386694
1(
b0 ,
#387996
b1 ,
#389298
0(
b10 ,
#390600
b11 ,
#391902
1(
b0 ,
#393204
b1 ,
#394506
0(
b10 ,
#395808
b11 ,
#397110
1(
b0 ,
#398412
b1 ,
#399714
0(
b10 ,
#401016
b11 ,
#402318
1(
b0 ,
#403620
b1 ,
#404922
0(
b10 ,
#406224
0'
b11 ,
#407526
1(
b0 ,
#408828
b1 ,
#410130
0(
b10 ,
#411432
b11 ,
#412734
1(
b0 ,
#414036
b1 ,
#415338
1'
0(
b10 ,
#416640
0'
b11 ,
#417942
1(
b0 ,
#419244
b1 ,
#420546
0(
b10 ,
#421848
b11 ,
#423150
1(
b0 ,
#424452
b1 ,
#425754
0(
b10 ,
#427056
b11 ,
#428358
1(
b0 ,
#429660
b1 ,
#430962
0(
b10 ,
#432264
b11 ,
#433566
1(
b0 ,
#434868
b1 ,
#436170
0(
b10 ,
#437472
b11 ,
#438774
1(
b0 ,
#440076
b1 ,
#441378
0(
b10 ,
#442680
b11 ,
#443982
1(
b0 ,
#445284
b1 ,
#446586
0(
b10 ,
#447888
b11 ,
#449190
1(
b0 ,
#450492
b1 ,
#451794
0(
b10 ,
#453096
b11 ,
#454398
1(
b0 ,
#455700
b1 ,
#457002
0(
b10 ,
#458304
b11 ,
#459606
1(
b0 ,
#460908
b1 ,
#462210
1'
0(
b10 ,
#463512
0'
b11 ,
#464814
1(
b0 ,
#466116
1'
b1 ,
#467418
0%
b10 ,
#468720
1$
b110 )
b1001000000001 +
b11 ,
#470022
b0 ,
#471324
b1 ,
#472626
1%
b10 ,
#473928
0$
b11 ,
#475230
b0 ,
#476532
0'
b1 ,
#477834
0(
b10 ,
#479136
b11 ,
#480438
1(
b0 ,
#481740
b1 ,
#483042
0(
b10 ,
#484344
b11 ,
#485646
1(
b0 ,
#486948
b1 ,
#488250
0(
b10 ,
#489552
1'
b11 ,
#490854
1(
b0 ,
#492156
b1 ,
#493458
0(
b10 ,
#494760
b11 ,
#496062
1(
b0 ,
#497364
b1 ,
#498666
0(
b10 ,
#499968
0'
b11 ,
#501270
1(
b0 ,
#502572
b1 ,
#503874
0(
b10 ,
#505176
1'
b11 ,
#506478
1(
b0 ,
#507780
b1 ,
#509082
0(
b10 ,
#510384
0'
b11 ,
#511686
1(
b0 ,
#512988
b1 ,
#514290
0(
b10 ,
#515592
b11 ,
#516894
1(
b0 ,
#518196
b1 ,
#519498
0(
b10 ,
#520800
b11 ,
#522102
1(
b0 ,
#523404
b1 ,
#524706
1'
0(
b10 ,
#526008
0'
b11 ,
#527310
1(
b0 ,
#528612
b1 ,
#529914
0(
b10 ,
#531216
b11 ,
#532518
1(
b0 ,
#533820
b1 ,
#535122
0(
b10 ,
#536424
b11 ,
#537726
1(
b0 ,
#539028
b1 ,
#540330
0(
b10 ,
#541632
1'
b11 ,
#542934
1(
b0 ,
#544236
b1 ,
#545538
0(
b10 ,
#546840
0'
b11 ,
#548142
1(
b0 ,
#549444
b1 ,
#550746
0(
b10 ,
#552048
b11 ,
#553350
1(
b0 ,
#554652
b1 ,
#555954
0(
b10 ,
#557256
1'
b11 ,
#558558
1(
b0 ,
#559860
b1 ,
#561162
0(
b10 ,
#562464
0'
b11 ,
#563766
1(
b0 ,
#565068
b1 ,
#566370
0(
b10 ,
#567672
b11 ,
#568974
1(
b0 ,
#570276
b1 ,
#571578
1'
0(
b10 ,
#572880
0'
b11 ,
#574182
1(
b0 ,
#575484
b1 ,
#576786
0(
b10 ,
#578088
b11 ,
#579390
1(
b0 ,
#580692
b1 ,
#581994
0(
b10 ,
#583296
b11 ,
#584598
1(
b0 ,
#585900
b1 ,
#587202
0(
b10 ,
#588504
b11 ,
#589806
1(
b0 ,
#591108
b1 ,
#592410
0(
b10 ,
#593712
b11 ,
#595014
1(
b0 ,
#596316
b1 ,
#597618
0(
b10 ,
#598920
b11 ,
#600222
1(
b0 ,
#601524
b1 ,
#602826
0(
b10 ,
#604128
b11 ,
#605430
1(
b0 ,
#606732
b1 ,
#608034
0(
b10 ,
#609336
1'
b11 ,
#610638
1(
b0 ,
#611940
b1 ,
#613242
0'
0(
b10 ,
#614544
b11 ,
#615846
1(
b0 ,
#617148
b1 ,
#618450
1'
0(
b10 ,
#619752
0'
b11 ,
#621054
1(
b0 ,
#622356
1'
b1 ,
#623658
0%
b10 ,
#624960
1$
b101 )
b110000000000 +
b11 ,
#626262
b0 ,
#627564
b1 ,
#628866
1%
b10 ,
#630168
0$
b11 ,
#631470
b0 ,
#632772
0'
b1 ,
#634074
0(
b10 ,
#635376
b11 ,
#636678
1(
b0 ,
#637980
b1 ,
#639282
0(
b10 ,
#640584
b11 ,
#641886
1(
b0 ,
#643188
b1 ,
#644490
0(
b10 ,
#645792
1'
b11 ,
#647094
1(
b0 ,
#648396
b1 ,
#649698
0(
b10 ,
#651000
b11 ,
#652302
1(
b0 ,
#653604
b1 ,
#654906
0(
b10 ,
#656208
0'
b11 ,
#657510
1(
b0 ,
#658812
b1 ,
#660114
0(
b10 ,
#661416
1'
b11 ,
#662718
1(
b0 ,
#664020
b1 ,
#665322
0(
b10 ,
#666624
0'
b11 ,
#667926
1(
b0 ,
#669228
b1 ,
#670530
0(
b10 ,
#671832
b11 ,
#673134
1(
b0 ,
#674436
b1 ,
#675738
0(
b10 ,
#677040
b11 ,
#678342
1(
b0 ,
#679644
b1 ,
#680946
1'
0(
b10 ,
#682248
0'
b11 ,
#683550
1(
b0 ,
#684852
b1 ,
#686154
0(
b10 ,
#687456
b11 ,
#688758
1(
b0 ,
#690060
b1 ,
#691362
0(
b10 ,
#692664
b11 ,
#693966
1(
b0 ,
#695268
b1 ,
#696570
0(
b10 ,
#697872
b11 ,
#699174
1(
b0 ,
#700476
b1 ,
#701778
0(
b10 ,
#703080
1'
b11 ,
#704382
1(
b0 ,
#705684
b1 ,
#706986
0(
b10 ,
#708288
b11 ,
#709590
1(
b0 ,
#710892
b1 ,
#712194
0(
b10 ,
#713496
0'
b11 ,
#714798
1(
b0 ,
#716100
b1 ,
#717402
0(
b10 ,
#718704
b11 ,
#720006
1(
b0 ,
#721308
b1 ,
#722610
0(
b10 ,
#723912
b11 ,
#725214
1(
b0 ,
#726516
b1 ,
#727818
1'
0(
b10 ,
#729120
0'
b11 ,
#730422
1(
b0 ,
#731724
b1 ,
#733026
0(
b10 ,
#734328
b11 ,
#735630
1(
b0 ,
#736932
b1 ,
#738234
0(
b10 ,
#739536
b11 ,
#740838
1(
b0 ,
#742140
b1 ,
#743442
0(
b10 ,
#744744
b11 ,
#746046
1(
b0 ,
#747348
b1 ,
#748650
0(
b10 ,
#749952
b11 ,
#751254
1(
b0 ,
#752556
b1 ,
#753858
0(
b10 ,
#755160
b11 ,
#756462
1(
b0 ,
#757764
b1 ,
#759066
0(
b10 ,
#760368
b11 ,
#761670
1(
b0 ,
#762972
b1 ,
#764274
0(
b10 ,
#765576
b11 ,
#766878
1(
b0 ,
#768180
b1 ,
#769482
0(
b10 ,
#770784
b11 ,
#772086
1(
b0 ,
#773388
b1 ,
#774690
1'
0(
b10 ,
#775992
0'
b11 ,
#777294
1(
b0 ,
#778596
1'
b1 ,
#779898
0%
b10 ,
#781200
1$
b100 )
b111000000010 +
b11 ,
#782502
b0 ,
#783804
b1 ,
#785106
1%
b10 ,
#786408
0$
b11 ,
#787710
b0 ,
#789012
0'
b1 ,
#790314
0(
b10 ,
#791616
b11 ,
#792918
1(
b0 ,
#794220
b1 ,
#795522
0(
b10 ,
#796824
b11 ,
#798126
1(
b0 ,
#799428
b1 ,
#800730
0(
b10 ,
#802032
1'
b11 ,
#803334
1(
b0 ,
#804636
b1 ,
#805938
0(
b10 ,
#807240
b11 ,
#808542
1(
b0 ,
#809844
b1 ,
#811146
0(
b10 ,
#812448
0'
b11 ,
#813750
1(
b0 ,
#815052
b1 ,
#816354
0(
b10 ,
#817656
1'
b11 ,
#818958
1(
b0 ,
#820260
b1 ,
#821562
0(
b10 ,
#822864
0'
b11 ,
#824166
1(
b0 ,
#825468
b1 ,
#826770
0(
b10 ,
#828072
b11 ,
#829374
1(
b0 ,
#830676
b1 ,
#831978
0(
b10 ,
#833280
b11 ,
#834582
1(
b0 ,
#835884
b1 ,
#837186
1'
0(
b10 ,
#838488
0'
b11 ,
#839790
1(
b0 ,
#841092
b1 ,
#842394
0(
b10 ,
#843696
b11 ,
#844998
1(
b0 ,
#846300
b1 ,
#847602
0(
b10 ,
#848904
b11 ,
#850206
1(
b0 ,
#851508
b1 ,
#852810
0(
b10 ,
#854112
b11 ,
#855414
1(
b0 ,
#856716
b1 ,
#858018
0(
b10 ,
#859320
1'
b11 ,
#860622
1(
b0 ,
#861924
b1 ,
#863226
0(
b10 ,
#864528
b11 ,
#865830
1(
b0 ,
#867132
b1 ,
#868434
0(
b10 ,
#869736
b11 ,
#871038
1(
b0 ,
#872340
b1 ,
#873642
0(
b10 ,
#874944
0'
b11 ,
#876246
1(
b0 ,
#877548
b1 ,
#878850
0(
b10 ,
#880152
b11 ,
#881454
1(
b0 ,
#882756
b1 ,
#884058
1'
0(
b10 ,
#885360
0'
b11 ,
#886662
1(
b0 ,
#887964
b1 ,
#889266
0(
b10 ,
#890568
b11 ,
#891870
1(
b0 ,
#893172
b1 ,
#894474
0(
b10 ,
#895776
b11 ,
#897078
1(
b0 ,
#898380
b1 ,
#899682
0(
b10 ,
#900984
b11 ,
#902286
1(
b0 ,
#903588
b1 ,
#904890
0(
b10 ,
#906192
b11 ,
#907494
1(
b0 ,
#908796
b1 ,
#910098
0(
b10 ,
#911400
b11 ,
#912702
1(
b0 ,
#914004
b1 ,
#915306
0(
b10 ,
#916608
1'
b11 ,
#917910
1(
b0 ,
#919212
b1 ,
#920514
0(
b10 ,
#921816
0'
b11 ,
#923118
1(
b0 ,
#924420
b1 ,
#925722
0(
b10 ,
#927024
b11 ,
#928326
1(
b0 ,
#929628
b1 ,
#930930
1'
0(
b10 ,
#932232
0'
b11 ,
#933534
1(
b0 ,
#934836
1'
b1 ,
#936138
0%
b10 ,
#937440
1$
b11 )
b1000000000000 +
b11 ,
#938742
b0 ,
#940044
b1 ,
#941346
1%
b10 ,
#942648
0$
b11 ,
#943950
b0 ,
#945252
0'
b1 ,
#946554
0(
b10 ,
#947856
b11 ,
#949158
1(
b0 ,
#950460
b1 ,
#951762
0(
b10 ,
#953064
b11 ,
#954366
1(
b0 ,
#955668
b1 ,
#956970
0(
b10 ,
#958272
1'
b11 ,
#959574
1(
b0 ,
#960876
b1 ,
#962178
0(
b10 ,
#963480
b11 ,
#964782
1(
b0 ,
#966084
b1 ,
#967386
0(
b10 ,
#968688
0'
b11 ,
#969990
1(
b0 ,
#971292
b1 ,
#972594
0(
b10 ,
#973896
1'
b11 ,
#975198
1(
b0 ,
#976500
b1 ,
#977802
0(
b10 ,
#979104
0'
b11 ,
#980406
1(
b0 ,
#981708
b1 ,
#983010
0(
b10 ,
#984312
b11 ,
#985614
1(
b0 ,
#986916
b1 ,
#988218
0(
b10 ,
#989520
b11 ,
#990822
1(
b0 ,
#992124
b1 ,
#993426
1'
0(
b10 ,
#994728
0'
b11 ,
#996030
1(
b0 ,
#997332
b1 ,
#998634
0(
b10 ,
#999936
b11 ,
#1001238
1(
b0 ,
#1002540
b1 ,
#1003842
0(
b10 ,
#1005144
b11 ,
#1006446
1(
b0 ,
#1007748
b1 ,
#1009050
0(
b10 ,
#1010352
1'
b11 ,
#1011654
1(
b0 ,
#1012956
b1 ,
#1014258
0(
b10 ,
#1015560
0'
b11 ,
#1016862
1(
b0 ,
#1018164
b1 ,
#1019466
0(
b10 ,
#1020768
b11 ,
#1022070
1(
b0 ,
#1023372
b1 ,
#1024674
0(
b10 ,
#1025976
b11 ,
#1027278
1(
b0 ,
#1028580
b1 ,
#1029882
0(
b10 ,
#1031184
b11 ,
#1032486
1(
b0 ,
#1033788
b1 ,
#1035090
0(
b10 ,
#1036392
b11 ,
#1037694
1(
b0 ,
#1038996
b1 ,
#1040298
1'
0(
b10 ,
#1041600
0'
b11 ,
#1042902
1(
b0 ,
#1044204
b1 ,
#1045506
0(
b10 ,
#1046808
b11 ,
#1048110
1(
b0 ,
#1049412
b1 ,
#1050714
0(
b10 ,
#1052016
b11 ,
#1053318
1(
b0 ,
#1054620
b1 ,
#1055922
0(
b10 ,
#1057224
b11 ,
#1058526
1(
b0 ,
#1059828
b1 ,
#1061130
0(
b10 ,
#1062432
b11 ,
#1063734
1(
b0 ,
#1065036
b1 ,
#1066338
0(
b10 ,
#1067640
b11 ,
#1068942
1(
b0 ,
#1070244
b1 ,
#1071546
0(
b10 ,
#1072848
b11 ,
#1074150
1(
b0 ,
#1075452
b1 ,
#1076754
0(
b10 ,
#1078056
b11 ,
#1079358
1(
b0 ,
#1080660
b1 ,
#1081962
0(
b10 ,
#1083264
b11 ,
#1084566
1(
b0 ,
#1085868
b1 ,
#1087170
1'
0(
b10 ,
#1088472
0'
b11 ,
#1089774
1(
b0 ,
#1091076
1'
b1 ,
#1092378
0%
b10 ,
#1093680
1$
b10 )
b101000000000 +
b11 ,
#1094982
b0 ,
#1096284
b1 ,
#1097586
1%
b10 ,
#1098888
0$
b11 ,
#1100190
b0 ,
#1101492
0'
b1 ,
#1102794
0(
b10 ,
#1104096
b11 ,
#1105398
1(
b0 ,
#1106700
b1 ,
#1108002
0(
b10 ,
#1109304
b11 ,
#1110606
1(
b0 ,
#1111908
b1 ,
#1113210
0(
b10 ,
#1114512
1'
b11 ,
#1115814
1(
b0 ,
#1117116
b1 ,
#1118418
0(
b10 ,
#1119720
b11 ,
#1121022
1(
b0 ,
#1122324
b1 ,
#1123626
0(
b10 ,
#1124928
0'
b11 ,
#1126230
1(
b0 ,
#1127532
b1 ,
#1128834
0(
b10 ,
#1130136
1'
b11 ,
#1131438
1(
b0 ,
#1132740
b1 ,
#1134042
0(
b10 ,
#1135344
0'
b11 ,
#1136646
1(
b0 ,
#1137948
b1 ,
#1139250
0(
b10 ,
#1140552
b11 ,
#1141854
1(
b0 ,
#1143156
b1 ,
#1144458
0(
b10 ,
#1145760
b11 ,
#1147062
1(
b0 ,
#1148364
b1 ,
#1149666
1'
0(
b10 ,
#1150968
0'
b11 ,
#1152270
1(
b0 ,
#1153572
b1 ,
#1154874
0(
b10 ,
#1156176
b11 ,
#1157478
1(
b0 ,
#1158780
b1 ,
#1160082
0(
b10 ,
#1161384
b11 ,
#1162686
1(
b0 ,
#1163988
b1 ,
#1165290
0(
b10 ,
#1166592
b11 ,
#1167894
1(
b0 ,
#1169196
b1 ,
#1170498
0(
b10 ,
#1171800
1'
b11 ,
#1173102
1(
b0 ,
#1174404
b1 ,
#1175706
0(
b10 ,
#1177008
0'
b11 ,
#1178310
1(
b0 ,
#1179612
b1 ,
#1180914
0(
b10 ,
#1182216
1'
b11 ,
#1183518
1(
b0 ,
#1184820
b1 ,
#1186122
0(
b10 ,
#1187424
0'
b11 ,
#1188726
1(
b0 ,
#1190028
b1 ,
#1191330
0(
b10 ,
#1192632
b11 ,
#1193934
1(
b0 ,
#1195236
b1 ,
#1196538
1'
0(
b10 ,
#1197840
0'
b11 ,
#1199142
1(
b0 ,
#1200444
b1 ,
#1201746
0(
b10 ,
#1203048
b11 ,
#1204350
1(
b0 ,
#1205652
b1 ,
#1206954
0(
b10 ,
#1208256
b11 ,
#1209558
1(
b0 ,
#1210860
b1 ,
#1212162
0(
b10 ,
#1213464
b11 ,
#1214766
1(
b0 ,
#1216068
b1 ,
#1217370
0(
b10 ,
#1218672
b11 ,
#1219974
1(
b0 ,
#1221276
b1 ,
#1222578
0(
b10 ,
#1223880
b11 ,
#1225182
1(
b0 ,
#1226484
b1 ,
#1227786
0(
b10 ,
#1229088
b11 ,
#1230390
1(
b0 ,
#1231692
b1 ,
#1232994
0(
b10 ,
#1234296
b11 ,
#1235598
1(
b0 ,
#1236900
b1 ,
#1238202
0(
b10 ,
#1239504
b11 ,
#1240806
1(
b0 ,
#1242108
b1 ,
#1243410
1'
0(
b10 ,
#1244712
0'
b11 ,
#1246014
1(
b0 ,
#1247316
1'
b1 ,
#1248618
0%
b10 ,
#1249920
1$
b1 )
b100000010000 +
b11 ,
#1251222
b0 ,
#1252524
b1 ,
#1253826
1%
b10 ,
#1255128
0$
b11 ,
#1256430
b0 ,
#1257732
0'
b1 ,
#1259034
0(
b10 ,
#1260336
b11 ,
#1261638
1(
b0 ,
#1262940
b1 ,
#1264242
0(
b10 ,
#1265544
b11 ,
#1266846
1(
b0 ,
#1268148
b1 ,
#1269450
0(
b10 ,
#1270752
1'
b11 ,
#1272054
1(
b0 ,
#1273356
b1 ,
#1274658
0(
b10 ,
#1275960
b11 ,
#1277262
1(
b0 ,
#1278564
b1 ,
#1279866
0(
b10 ,
#1281168
0'
b11 ,
#1282470
1(
b0 ,
#1283772
b1 ,
#1285074
0(
b10 ,
#1286376
1'
b11 ,
#1287678
1(
b0 ,
#1288980
b1 ,
#1290282
0(
b10 ,
#1291584
0'
b11 ,
#1292886
1(
b0 ,
#1294188
b1 ,
#1295490
0(
b10 ,
#1296792
b11 ,
#1298094
1(
b0 ,
#1299396
b1 ,
#1300698
0(
b10 ,
#1302000
b11 ,
#1303302
1(
b0 ,
#1304604
b1 ,
#1305906
1'
0(
b10 ,
#1307208
0'
b11 ,
#1308510
1(
b0 ,
#1309812
b1 ,
#1311114
0(
b10 ,
#1312416
b11 ,
#1313718
1(
b0 ,
#1315020
b1 ,
#1316322
0(
b10 ,
#1317624
b11 ,
#1318926
1(
b0 ,
#1320228
b1 ,
#1321530
0(
b10 ,
#1322832
b11 ,
#1324134
1(
b0 ,
#1325436
b1 ,
#1326738
0(
b10 ,
#1328040
1'
b11 ,
#1329342
1(
b0 ,
#1330644
b1 ,
#1331946
0(
b10 ,
#1333248
0'
b11 ,
#1334550
1(
b0 ,
#1335852
b1 ,
#1337154
0(
b10 ,
#1338456
b11 ,
#1339758
1(
b0 ,
#1341060
b1 ,
#1342362
0(
b10 ,
#1343664
b11 ,
#1344966
1(
b0 ,
#1346268
b1 ,
#1347570
0(
b10 ,
#1348872
b11 ,
#1350174
1(
b0 ,
#1351476
b1 ,
#1352778
1'
0(
b10 ,
#1354080
0'
b11 ,
#1355382
1(
b0 ,
#1356684
b1 ,
#1357986
0(
b10 ,
#1359288
b11 ,
#1360590
1(
b0 ,
#1361892
b1 ,
#1363194
0(
b10 ,
#1364496
b11 ,
#1365798
1(
b0 ,
#1367100
b1 ,
#1368402
0(
b10 ,
#1369704
1'
b11 ,
#1371006
1(
b0 ,
#1372308
b1 ,
#1373610
0(
b10 ,
#1374912
0'
b11 ,
#1376214
1(
b0 ,
#1377516
b1 ,
