software/datatraces/codec_mic_gui.vcd
$date today $end
$timescale 1 ns $end
$scope module CODEC_MIC $end
$var integer 16 ! micdata $end
$var integer 5 " state $end
$var integer 1 # CBCLK $end
$var integer 1 $ CLRCLK $end
$var integer 1 % CDOUT $end
$var integer 1 & ready $end
$upscope $end
$enddefinitions $end
#0
$dumpvars
bx !
bx "
x#
x$
x%
x&
$end
#81
b100 !
b1010 "
1#
0$
0%
0&
#243
0#
#405
b1011 "
1#
#567
0#
#729
b1100 "
1#
#891
0#
#1053
b1101 "
1#
#1215
0#
#1377
b1110 "
1#
#1539
0#
#1701
b1111 "
1#
#1863
0#
#2025
b10000 "
1#
#2187
0#
1%
#2349
b10001 "
1#
#2511
0#
0%
#2673
b10010 "
1#
#2835
0#
#2997
b10 !
b0 "
1#
1&
#3159
0#
#3321
1#
0&
#3483
0#
#3645
1#
#3807
0#
#3969
1#
#4131
0#
#4293
1#
#4455
0#
#4617
1#
#4779
0#
#4941
1#
#5103
0#
#5265
1#
#5427
0#
#5589
1#
#5751
0#
#5913
1#
#6075
0#
#6237
1#
#6399
0#
#6561
1#
#6723
0#
#6885
1#
#7047
0#
#7209
1#
#7371
0#
#7533
1#
1$
#7695
0#
#7857
b1 "
1#
