software/datatraces/codec_cfg_gui.vcd
$date today $end
$timescale 1 ns $end
$scope module CODEC_CFG $end
$var integer 1 ! running $end
$var integer 1 " update_required $end
$var integer 1 # reset_n $end
$var integer 1 $ wr_request $end
$var integer 1 % busy $end
$var integer 1 & init_required $end
$var integer 1 ' SDA $end
$var integer 1 ( SCL $end
$var integer 4 ) word_no $end
$var integer 4 * state $end
$var integer 16 + datawr $end
$var integer 16 , bclk $end
$upscope $end
$enddefinitions $end
#0
$dumpvars
x!
x"
x#
x$
x%
x&
x'
x(
bx )
bx *
bx +
bx ,
$end
#1302
1!
1"
1#
1$
1%
0&
1'
1(
b1 )
b1 *
b100000010100 +
b0 ,
#2604
0"
0$
1&
b1 ,
#3906
b10 ,
#5208
0'
b11 ,
#6510
0(
b0 ,
#7812
b1 ,
#9114
1(
b10 ,
#10416
b11 ,
#11718
0(
b0 ,
#13020
b1 ,
#14322
1(
b10 ,
#15624
b11 ,
#16926
0(
b0 ,
#18228
1'
b1 ,
#19530
1(
b10 ,
#20832
b11 ,
#22134
0(
b0 ,
#23436
b1 ,
#24738
1(
b10 ,
#26040
b11 ,
#27342
0(
b0 ,
#28644
0'
b1 ,
#29946
1(
b10 ,
#31248
b11 ,
#32550
0(
b0 ,
#33852
1'
b1 ,
#35154
1(
b10 ,
#36456
b11 ,
#37758
0(
b0 ,
#39060
0'
b1 ,
#40362
1(
b10 ,
#41664
b11 ,
#42966
0(
b0 ,
#44268
b1 ,
#45570
1(
b10 ,
#46872
b11 ,
#48174
0(
b0 ,
#49476
b1 ,
#50778
1(
b10 ,
#52080
b11 ,
#53382
1'
0(
b0 ,
#54684
0'
b1 ,
#55986
1(
b10 ,
#57288
b11 ,
#58590
0(
b0 ,
#59892
b1 ,
#61194
1(
b10 ,
#62496
b11 ,
#63798
0(
b0 ,
#65100
b1 ,
#66402
1(
b10 ,
#67704
b11 ,
#69006
0(
b0 ,
#70308
b1 ,
#71610
1(
b10 ,
#72912
b11 ,
#74214
0(
b0 ,
#75516
1'
b1 ,
#76818
1(
b10 ,
#78120
b11 ,
#79422
0(
b0 ,
#80724
0'
b1 ,
#82026
1(
b10 ,
#83328
b11 ,
#84630
0(
b0 ,
#85932
b1 ,
#87234
1(
b10 ,
#88536
b11 ,
#89838
0(
b0 ,
#91140
b1 ,
#92442
1(
b10 ,
#93744
b11 ,
#95046
0(
b0 ,
#96348
b1 ,
#97650
1(
b10 ,
#98952
b11 ,
#100254
1'
0(
b0 ,
#101556
0'
b1 ,
#102858
1(
b10 ,
#104160
b11 ,
#105462
0(
b0 ,
#106764
b1 ,
#108066
1(
b10 ,
#109368
b11 ,
#110670
0(
b0 ,
#111972
b1 ,
#113274
1(
b10 ,
#114576
b11 ,
#115878
0(
b0 ,
#117180
1'
b1 ,
#118482
1(
b10 ,
#119784
b11 ,
#121086
0(
b0 ,
#122388
0'
b1 ,
#123690
1(
b10 ,
#124992
b11 ,
#126294
0(
b0 ,
#127596
1'
b1 ,
#128898
1(
b10 ,
#130200
b11 ,
#131502
0(
b0 ,
#132804
0'
b1 ,
#134106
1(
b10 ,
#135408
b11 ,
#136710
0(
b0 ,
#138012
b1 ,
#139314
1(
b10 ,
#140616
b11 ,
#141918
0(
b0 ,
#143220
b1 ,
#144522
1(
b10 ,
#145824
b11 ,
#147126
1'
0(
b0 ,
#148428
0'
b1 ,
#149730
1(
b10 ,
#151032
1'
b11 ,
#152334
0%
b0 ,
#153636
1$
b0 )
b0 +
b1 ,
#154938
b10 ,
#156240
b11 ,
#157542
1%
b0 ,
#158844
0$
b1 ,
#160146
b10 ,
#161448
0'
b11 ,
#162750
0(
b0 ,
#164052
b1 ,
#165354
1(
b10 ,
#166656
b11 ,
#167958
0(
b0 ,
#169260
b1 ,
#170562
1(
b10 ,
#171864
b11 ,
#173166
0(
b0 ,
#174468
1'
b1 ,
#175770
1(
b10 ,
#177072
b11 ,
#178374
0(
b0 ,
#179676
b1 ,
#180978
1(
b10 ,
#182280
b11 ,
#183582
0(
b0 ,
#184884
0'
b1 ,
#186186
1(
b10 ,
#187488
b11 ,
#188790
0(
b0 ,
#190092
1'
b1 ,
#191394
1(
b10 ,
#192696
b11 ,
#193998
0(
b0 ,
#195300
0'
b1 ,
#196602
1(
b10 ,
#197904
b11 ,
#199206
0(
b0 ,
#200508
b1 ,
#201810
1(
b10 ,
#203112
b11 ,
#204414
0(
b0 ,
#205716
b1 ,
#207018
1(
b10 ,
#208320
b11 ,
#209622
1'
0(
b0 ,
#210924
0'
b1 ,
#212226
1(
b10 ,
#213528
b11 ,
#214830
0(
b0 ,
#216132
b1 ,
#217434
1(
b10 ,
#218736
b11 ,
#220038
0(
b0 ,
#221340
b1 ,
#222642
1(
b10 ,
#223944
b11 ,
#225246
0(
b0 ,
#226548
b1 ,
#227850
1(
b10 ,
#229152
b11 ,
#230454
0(
b0 ,
#231756
b1 ,
#233058
1(
b10 ,
#234360
b11 ,
#235662
0(
b0 ,
#236964
b1 ,
#238266
1(
b10 ,
#239568
b11 ,
#240870
0(
b0 ,
#242172
b1 ,
#243474
1(
b10 ,
#244776
b11 ,
#246078
0(
b0 ,
#247380
b1 ,
#248682
1(
b10 ,
#249984
b11 ,
#251286
0(
b0 ,
#252588
b1 ,
#253890
1(
b10 ,
#255192
b11 ,
#256494
1'
0(
b0 ,
#257796
0'
b1 ,
#259098
1(
b10 ,
#260400
b11 ,
#261702
0(
b0 ,
#263004
b1 ,
#264306
1(
b10 ,
#265608
b11 ,
#266910
0(
b0 ,
#268212
b1 ,
#269514
1(
b10 ,
#270816
b11 ,
#272118
0(
b0 ,
#273420
b1 ,
#274722
1(
b10 ,
#276024
b11 ,
#277326
0(
b0 ,
#278628
b1 ,
#279930
1(
b10 ,
#281232
b11 ,
#282534
0(
b0 ,
#283836
b1 ,
#285138
1(
b10 ,
#286440
b11 ,
#287742
0(
b0 ,
#289044
b1 ,
#290346
1(
b10 ,
#291648
b11 ,
#292950
0(
b0 ,
#294252
b1 ,
#295554
1(
b10 ,
#296856
b11 ,
#298158
0(
b0 ,
#299460
b1 ,
#300762
1(
b10 ,
#302064
b11 ,
#303366
1'
0(
b0 ,
#304668
0'
b1 ,
#305970
1(
b10 ,
#307272
1'
b11 ,
#308574
0%
b0 ,
#309876
0!
0&
b0 *
b1 ,
#311178
b10 ,
#312480
b11 ,
#313782
b0 ,
#315084
b1 ,
#316386
b10 ,
#317688
b11 ,
#318990
b0 ,
#320292
b1 ,
#321594
b10 ,
#322896
b11 ,
#324198
b0 ,
#325500
b1 ,
#326802
b10 ,
#328104
b11 ,
#329406
b0 ,
#330708
b1 ,
#332010
b10 ,
#333312
b11 ,
#334614
b0 ,
#335916
b1 ,
#337218
b10 ,
#338520
b11 ,
#339822
b0 ,
#341124
b1 ,
#342426
b10 ,
#343728
b11 ,
#345030
b0 ,
#346332
b1 ,
#347634
b10 ,
#348936
b11 ,
#350238
b0 ,
#351540
b1 ,
#352842
b10 ,
#354144
b11 ,
#355446
b0 ,
#356748
b1 ,
#358050
b10 ,
#359352
b11 ,
#360654
b0 ,
#361956
b1 ,
#363258
b10 ,
#364560
b11 ,
#365862
b0 ,
#367164
b1 ,
#368466
b10 ,
#369768
b11 ,
#371070
b0 ,
#372372
b1 ,
#373674
b10 ,
#374976
b11 ,
#376278
b0 ,
#377580
b1 ,
#378882
b10 ,
#380184
b11 ,
#381486
b0 ,
#382788
b1 ,
#384090
b10 ,
#385392
b11 ,
#386694
b0 ,
#387996
b1 ,
#389298
b10 ,
#390600
b11 ,
#391902
b0 ,
#393204
b1 ,
#394506
b10 ,
#395808
b11 ,
#397110
b0 ,
#398412
b1 ,
#399714
b10 ,
#401016
b11 ,
#402318
b0 ,
#403620
b1 ,
#404922
b10 ,
#406224
b11 ,
#407526
b0 ,
#408828
b1 ,
#410130
b10 ,
#411432
b11 ,
#412734
b0 ,
#414036
b1 ,
#415338
b10 ,
#416640
b11 ,
#417942
b0 ,
#419244
b1 ,
#420546
b10 ,
#421848
b11 ,
#423150
b0 ,
#424452
b1 ,
#425754
b10 ,
#427056
b11 ,
#428358
b0 ,
#429660
b1 ,
#430962
b10 ,
#432264
b11 ,
#433566
b0 ,
#434868
b1 ,
#436170
b10 ,
#437472
b11 ,
#438774
b0 ,
#440076
b1 ,
#441378
b10 ,
#442680
b11 ,
#443982
b0 ,
#445284
b1 ,
#446586
b10 ,
#447888
b11 ,
#449190
b0 ,
#450492
b1 ,
#451794
b10 ,
#453096
b11 ,
#454398
b0 ,
#455700
b1 ,
#457002
b10 ,
#458304
b11 ,
#459606
b0 ,
#460908
b1 ,
#462210
b10 ,
#463512
b11 ,
#464814
b0 ,
#466116
b1 ,
#467418
b10 ,
#468720
b11 ,
#470022
b0 ,
#471324
b1 ,
#472626
b10 ,
#473928
b11 ,
#475230
b0 ,
#476532
b1 ,
#477834
b10 ,
#479136
b11 ,
#480438
b0 ,
#481740
b1 ,
#483042
b10 ,
#484344
b11 ,
#485646
b0 ,
#486948
b1 ,
#488250
b10 ,
#489552
b11 ,
#490854
b0 ,
#492156
b1 ,
#493458
b10 ,
#494760
b11 ,
#496062
b0 ,
#497364
b1 ,
#498666
b10 ,
#499968
b11 ,
#501270
b0 ,
#502572
b1 ,
#503874
b10 ,
#505176
b11 ,
#506478
b0 ,
#507780
b1 ,
#509082
b10 ,
#510384
b11 ,
#511686
b0 ,
#512988
b1 ,
#514290
b10 ,
#515592
b11 ,
#516894
b0 ,
#518196
b1 ,
#519498
b10 ,
#520800
b11 ,
#522102
b0 ,
#523404
b1 ,
#524706
b10 ,
#526008
b11 ,
#527310
b0 ,
#528612
b1 ,
#529914
b10 ,
#531216
b11 ,
#532518
b0 ,
#533820
b1 ,
#535122
b10 ,
#536424
b11 ,
#537726
b0 ,
#539028
b1 ,
#540330
b10 ,
#541632
b11 ,
#542934
b0 ,
#544236
b1 ,
#545538
b10 ,
#546840
b11 ,
#548142
b0 ,
#549444
b1 ,
#550746
b10 ,
#552048
b11 ,
#553350
b0 ,
#554652
b1 ,
#555954
b10 ,
#557256
b11 ,
#558558
b0 ,
#559860
b1 ,
#561162
b10 ,
#562464
b11 ,
#563766
b0 ,
#565068
b1 ,
#566370
b10 ,
#567672
b11 ,
#568974
b0 ,
#570276
b1 ,
#571578
b10 ,
#572880
b11 ,
#574182
b0 ,
#575484
b1 ,
#576786
b10 ,
#578088
b11 ,
#579390
b0 ,
#580692
b1 ,
#581994
b10 ,
#583296
b11 ,
#584598
b0 ,
#585900
b1 ,
#587202
b10 ,
#588504
b11 ,
#589806
b0 ,
#591108
b1 ,
#592410
b10 ,
#593712
b11 ,
#595014
b0 ,
#596316
b1 ,
#597618
b10 ,
#598920
b11 ,
#600222
b0 ,
#601524
b1 ,
#602826
b10 ,
#604128
b11 ,
#605430
b0 ,
#606732
b1 ,
#608034
b10 ,
#609336
b11 ,
#610638
b0 ,
#611940
b1 ,
#613242
b10 ,
#614544
b11 ,
#615846
b0 ,
#617148
b1 ,
#618450
b10 ,
#619752
b11 ,
#621054
b0 ,
#622356
b1 ,
#623658
b10 ,
#624960
b11 ,
#626262
b0 ,
#627564
b1 ,
#628866
b10 ,
#630168
b11 ,
#631470
b0 ,
#632772
b1 ,
#634074
b10 ,
#635376
b11 ,
#636678
b0 ,
#637980
b1 ,
#639282
b10 ,
#640584
b11 ,
#641886
b0 ,
#643188
b1 ,
#644490
b10 ,
#645792
b11 ,
#647094
b0 ,
#648396
b1 ,
#649698
b10 ,
#651000
b11 ,
#652302
b0 ,
#653604
b1 ,
#654906
b10 ,
#656208
b11 ,
#657510
b0 ,
#658812
b1 ,
#660114
b10 ,
#661416
b11 ,
#662718
b0 ,
#664020
b1 ,
#665322
b10 ,
#666624
b11 ,
#667926
b0 ,
#669228
b1 ,
#670530
b10 ,
#671832
b11 ,
#673134
b0 ,
#674436
b1 ,
#675738
b10 ,
#677040
b11 ,
#678342
b0 ,
#679644
b1 ,
#680946
b10 ,
#682248
b11 ,
#683550
b0 ,
#684852
b1 ,
#686154
b10 ,
#687456
b11 ,
#688758
b0 ,
#690060
b1 ,
#691362
b10 ,
#692664
b11 ,
#693966
b0 ,
#695268
b1 ,
#696570
b10 ,
#697872
b11 ,
#699174
b0 ,
#700476
b1 ,
#701778
b10 ,
#703080
b11 ,
#704382
b0 ,
#705684
b1 ,
#706986
b10 ,
#708288
b11 ,
#709590
b0 ,
#710892
b1 ,
#712194
b10 ,
#713496
b11 ,
#714798
b0 ,
#716100
b1 ,
#717402
b10 ,
#718704
b11 ,
#720006
b0 ,
#721308
b1 ,
#722610
b10 ,
#723912
b11 ,
#725214
b0 ,
#726516
b1 ,
#727818
b10 ,
#729120
b11 ,
#730422
b0 ,
#731724
b1 ,
#733026
b10 ,
#734328
b11 ,
#735630
b0 ,
#736932
b1 ,
#738234
b10 ,
#739536
b11 ,
#740838
b0 ,
#742140
b1 ,
#743442
b10 ,
#744744
b11 ,
#746046
b0 ,
#747348
b1 ,
#748650
b10 ,
#749952
b11 ,
#751254
b0 ,
#752556
b1 ,
#753858
b10 ,
#755160
b11 ,
#756462
b0 ,
#757764
b1 ,
#759066
b10 ,
#760368
b11 ,
#761670
b0 ,
#762972
b1 ,
#764274
b10 ,
#765576
b11 ,
#766878
b0 ,
#768180
b1 ,
#769482
b10 ,
#770784
b11 ,
#772086
b0 ,
#773388
b1 ,
#774690
b10 ,
#775992
b11 ,
#777294
b0 ,
#778596
b1 ,
#779898
b10 ,
#781200
b11 ,
#782502
b0 ,
#783804
b1 ,
#785106
b10 ,
#786408
b11 ,
#787710
b0 ,
#789012
b1 ,
#790314
b10 ,
#791616
b11 ,
#792918
b0 ,
#794220
b1 ,
#795522
b10 ,
#796824
b11 ,
#798126
b0 ,
#799428
b1 ,
#800730
b10 ,
#802032
b11 ,
#803334
b0 ,
#804636
b1 ,
#805938
b10 ,
#807240
b11 ,
#808542
b0 ,
#809844
b1 ,
#811146
b10 ,
#812448
b11 ,
#813750
b0 ,
#815052
b1 ,
#816354
b10 ,
#817656
b11 ,
#818958
b0 ,
#820260
b1 ,
#821562
b10 ,
#822864
b11 ,
#824166
b0 ,
#825468
b1 ,
#826770
b10 ,
#828072
b11 ,
#829374
b0 ,
#830676
b1 ,
#831978
b10 ,
#833280
b11 ,
#834582
b0 ,
#835884
b1 ,
#837186
b10 ,
#838488
b11 ,
#839790
b0 ,
#841092
b1 ,
#842394
b10 ,
#843696
b11 ,
#844998
b0 ,
#846300
b1 ,
#847602
b10 ,
#848904
b11 ,
#850206
b0 ,
#851508
b1 ,
#852810
b10 ,
#854112
b11 ,
#855414
b0 ,
#856716
b1 ,
#858018
b10 ,
#859320
b11 ,
#860622
b0 ,
#861924
b1 ,
#863226
b10 ,
#864528
b11 ,
#865830
b0 ,
#867132
b1 ,
#868434
b10 ,
#869736
b11 ,
#871038
b0 ,
#872340
b1 ,
#873642
b10 ,
#874944
b11 ,
#876246
b0 ,
#877548
b1 ,
#878850
b10 ,
#880152
b11 ,
#881454
b0 ,
#882756
b1 ,
#884058
b10 ,
#885360
b11 ,
#886662
b0 ,
#887964
b1 ,
#889266
b10 ,
#890568
b11 ,
#891870
b0 ,
#893172
b1 ,
#894474
b10 ,
#895776
b11 ,
#897078
b0 ,
#898380
b1 ,
#899682
b10 ,
#900984
b11 ,
#902286
b0 ,
#903588
b1 ,
#904890
b10 ,
#906192
b11 ,
#907494
b0 ,
#908796
b1 ,
#910098
b10 ,
#911400
b11 ,
#912702
b0 ,
#914004
b1 ,
#915306
b10 ,
#916608
b11 ,
#917910
b0 ,
#919212
b1 ,
#920514
b10 ,
#921816
b11 ,
#923118
b0 ,
#924420
b1 ,
#925722
b10 ,
#927024
b11 ,
#928326
b0 ,
#929628
b1 ,
#930930
b10 ,
#932232
b11 ,
#933534
b0 ,
#934836
b1 ,
#936138
b10 ,
#937440
b11 ,
#938742
b0 ,
#940044
b1 ,
#941346
b10 ,
#942648
b11 ,
#943950
b0 ,
#945252
b1 ,
#946554
b10 ,
#947856
b11 ,
#949158
b0 ,
#950460
b1 ,
#951762
b10 ,
#953064
b11 ,
#954366
b0 ,
#955668
b1 ,
#956970
b10 ,
#958272
b11 ,
#959574
b0 ,
#960876
b1 ,
#962178
b10 ,
#963480
b11 ,
#964782
b0 ,
#966084
b1 ,
#967386
b10 ,
#968688
b11 ,
#969990
b0 ,
#971292
b1 ,
#972594
b10 ,
#973896
b11 ,
#975198
b0 ,
#976500
b1 ,
#977802
b10 ,
#979104
b11 ,
#980406
b0 ,
#981708
b1 ,
#983010
b10 ,
#984312
b11 ,
#985614
b0 ,
#986916
b1 ,
#988218
b10 ,
#989520
b11 ,
#990822
b0 ,
#992124
b1 ,
#993426
b10 ,
#994728
b11 ,
#996030
b0 ,
#997332
b1 ,
#998634
b10 ,
#999936
b11 ,
#1001238
b0 ,
#1002540
b1 ,
#1003842
b10 ,
#1005144
b11 ,
#1006446
b0 ,
#1007748
b1 ,
#1009050
b10 ,
#1010352
b11 ,
#1011654
b0 ,
#1012956
b1 ,
#1014258
b10 ,
#1015560
b11 ,
#1016862
b0 ,
#1018164
b1 ,
#1019466
b10 ,
#1020768
b11 ,
#1022070
b0 ,
#1023372
b1 ,
#1024674
b10 ,
#1025976
b11 ,
#1027278
b0 ,
#1028580
b1 ,
#1029882
b10 ,
#1031184
b11 ,
#1032486
b0 ,
#1033788
b1 ,
#1035090
b10 ,
#1036392
b11 ,
#1037694
b0 ,
#1038996
b1 ,
#1040298
b10 ,
#1041600
b11 ,
#1042902
b0 ,
#1044204
b1 ,
#1045506
b10 ,
#1046808
b11 ,
#1048110
b0 ,
#1049412
b1 ,
#1050714
b10 ,
#1052016
b11 ,
#1053318
b0 ,
#1054620
b1 ,
#1055922
b10 ,
#1057224
b11 ,
#1058526
b0 ,
#1059828
b1 ,
#1061130
b10 ,
#1062432
b11 ,
#1063734
b0 ,
#1065036
b1 ,
#1066338
b10 ,
#1067640
b11 ,
#1068942
b0 ,
#1070244
b1 ,
#1071546
b10 ,
#1072848
b11 ,
#1074150
b0 ,
#1075452
b1 ,
#1076754
b10 ,
#1078056
b11 ,
#1079358
b0 ,
#1080660
b1 ,
#1081962
b10 ,
#1083264
b11 ,
#1084566
b0 ,
#1085868
b1 ,
#1087170
b10 ,
#1088472
b11 ,
#1089774
b0 ,
#1091076
b1 ,
#1092378
b10 ,
#1093680
b11 ,
#1094982
b0 ,
#1096284
b1 ,
#1097586
b10 ,
#1098888
b11 ,
#1100190
b0 ,
#1101492
b1 ,
#1102794
b10 ,
#1104096
b11 ,
#1105398
b0 ,
#1106700
b1 ,
#1108002
b10 ,
#1109304
b11 ,
#1110606
b0 ,
#1111908
b1 ,
#1113210
b10 ,
#1114512
b11 ,
#1115814
b0 ,
#1117116
b1 ,
#1118418
b10 ,
#1119720
b11 ,
#1121022
b0 ,
#1122324
b1 ,
#1123626
b10 ,
#1124928
b11 ,
#1126230
b0 ,
#1127532
b1 ,
#1128834
b10 ,
#1130136
b11 ,
#1131438
b0 ,
#1132740
b1 ,
#1134042
b10 ,
#1135344
b11 ,
#1136646
b0 ,
#1137948
b1 ,
#1139250
b10 ,
#1140552
b11 ,
#1141854
b0 ,
#1143156
b1 ,
#1144458
b10 ,
#1145760
b11 ,
#1147062
b0 ,
#1148364
b1 ,
#1149666
b10 ,
#1150968
b11 ,
#1152270
b0 ,
#1153572
b1 ,
#1154874
b10 ,
#1156176
b11 ,
#1157478
b0 ,
#1158780
b1 ,
#1160082
b10 ,
#1161384
b11 ,
#1162686
b0 ,
#1163988
b1 ,
#1165290
b10 ,
#1166592
b11 ,
#1167894
b0 ,
#1169196
b1 ,
#1170498
b10 ,
#1171800
b11 ,
#1173102
b0 ,
#1174404
b1 ,
#1175706
b10 ,
#1177008
b11 ,
#1178310
b0 ,
#1179612
b1 ,
#1180914
b10 ,
#1182216
b11 ,
#1183518
b0 ,
#1184820
b1 ,
#1186122
b10 ,
#1187424
b11 ,
#1188726
b0 ,
#1190028
b1 ,
#1191330
b10 ,
#1192632
b11 ,
#1193934
b0 ,
#1195236
b1 ,
#1196538
b10 ,
#1197840
b11 ,
#1199142
b0 ,
#1200444
b1 ,
#1201746
b10 ,
#1203048
b11 ,
#1204350
b0 ,
#1205652
b1 ,
#1206954
b10 ,
#1208256
b11 ,
#1209558
b0 ,
#1210860
b1 ,
#1212162
b10 ,
#1213464
b11 ,
#1214766
b0 ,
#1216068
b1 ,
#1217370
b10 ,
#1218672
b11 ,
#1219974
b0 ,
#1221276
b1 ,
#1222578
b10 ,
#1223880
b11 ,
#1225182
b0 ,
#1226484
b1 ,
#1227786
b10 ,
#1229088
b11 ,
#1230390
b0 ,
#1231692
b1 ,
#1232994
b10 ,
#1234296
b11 ,
#1235598
b0 ,
#1236900
b1 ,
#1238202
b10 ,
#1239504
b11 ,
#1240806
b0 ,
#1242108
b1 ,
#1243410
b10 ,
#1244712
b11 ,
#1246014
b0 ,
#1247316
b1 ,
#1248618
b10 ,
#1249920
b11 ,
#1251222
b0 ,
#1252524
b1 ,
#1253826
b10 ,
#1255128
b11 ,
#1256430
b0 ,
#1257732
b1 ,
#1259034
b10 ,
#1260336
b11 ,
#1261638
b0 ,
#1262940
b1 ,
#1264242
b10 ,
#1265544
b11 ,
#1266846
b0 ,
#1268148
b1 ,
#1269450
b10 ,
#1270752
b11 ,
#1272054
b0 ,
#1273356
b1 ,
#1274658
b10 ,
#1275960
b11 ,
#1277262
b0 ,
#1278564
b1 ,
#1279866
b10 ,
#1281168
b11 ,
#1282470
b0 ,
#1283772
b1 ,
#1285074
b10 ,
#1286376
b11 ,
#1287678
b0 ,
#1288980
b1 ,
#1290282
b10 ,
#1291584
b11 ,
#1292886
b0 ,
#1294188
b1 ,
#1295490
b10 ,
#1296792
b11 ,
#1298094
b0 ,
#1299396
b1 ,
#1300698
b10 ,
#1302000
b11 ,
#1303302
b0 ,
#1304604
b1 ,
#1305906
b10 ,
#1307208
b11 ,
#1308510
b0 ,
#1309812
b1 ,
#1311114
b10 ,
#1312416
b11 ,
#1313718
b0 ,
#1315020
b1 ,
#1316322
b10 ,
#1317624
b11 ,
#1318926
b0 ,
#1320228
b1 ,
#1321530
b10 ,
#1322832
b11 ,
#1324134
b0 ,
#1325436
b1 ,
#1326738
b10 ,
#1328040
b11 ,
#1329342
b0 ,
#1330644
b1 ,
#1331946
b10 ,
#1333248
b11 ,
#1334550
b0 ,
#1335852
b1 ,
#1337154
b10 ,
#1338456
b11 ,
#1339758
b0 ,
#1341060
b1 ,
#1342362
b10 ,
#1343664
b11 ,
#1344966
b0 ,
#1346268
b1 ,
#1347570
b10 ,
#1348872
b11 ,
#1350174
b0 ,
#1351476
b1 ,
#1352778
b10 ,
#1354080
b11 ,
#1355382
b0 ,
#1356684
b1 ,
#1357986
b10 ,
#1359288
b11 ,
#1360590
b0 ,
#1361892
b1 ,
#1363194
b10 ,
#1364496
b11 ,
#1365798
b0 ,
#1367100
b1 ,
#1368402
b10 ,
#1369704
b11 ,
#1371006
b0 ,
#1372308
b1 ,
#1373610
b10 ,
#1374912
b11 ,
#1376214
b0 ,
#1377516
b1 ,
