software/datatraces/MAC_gui.vcd
$date today $end
$timescale 1 ns $end
$scope module MAC $end
$var integer 8 ! rxdata $end
$var integer 5 " state $end
$var integer 3 # byteno $end
$var integer 1 $ mac_rx_enable $end
$var integer 1 % mac_rx_active $end
$var integer 1 & broadcast $end
$var integer 1 ' rx_is_arp $end
$var integer 1 ( rx_is_icmp $end
$var integer 1 ) ip_rx_active $end
$var integer 1 * udp_rx_active $end
$var integer 1 + dhcp_rx_active $end
$upscope $end
$enddefinitions $end
#0
$dumpvars
b1010101 !
b1 "
b101 #
0$
0%
1&
0'
1(
0)
0*
0+
$end
#8
b11010101 !
#16
b11101101 !
1$
#24
b10100 !
b100 #
0&
#32
b110011 !
b11 #
#40
b1000100 !
b10 #
#48
b1010101 !
b1 #
#56
b10111011 !
b0 #
#64
b1010100 !
b10 "
b101 #
#72
b10101011 !
b100 #
#80
b111010 !
b11 #
#88
b11000010 !
b10 #
#96
b1011011 !
b1 #
#104
b11111111 !
b0 #
#112
b1000 !
b100 "
b1 #
#120
b0 !
b0 #
#128
b1000101 !
b1000 "
1%
#136
b0 !
#152
b1010100 !
#160
b11110111 !
#168
b111010 !
#176
b1000000 !
#184
b0 !
#192
b1000000 !
#200
b1 !
#208
b11000001 !
#216
b1001011 !
#224
b11000000 !
#232
b10101000 !
#240
b0 !
#248
b1010 !
#256
b11000000 !
#264
b10101000 !
#272
b0 !
#280
b11001000 !
#288
b1000 !
1)
#296
b0 !
#304
b1100011 !
#312
b10110011 !
#320
b0 !
#328
b1010 !
#336
b10000 !
#344
b1111101 !
#352
b10100010 !
#360
b1000010 !
#368
b0 !
#376
b1100110 !
#384
b0 !
#416
b11000 !
#424
b1001010 !
#432
b1010 !
#440
b0 !
#480
b10000 !
#488
b10001 !
#496
b10010 !
#504
b10011 !
#512
b10100 !
#520
b10101 !
#528
b10110 !
#536
b10111 !
#544
b11000 !
#552
b11001 !
#560
b11010 !
#568
b11011 !
#576
b11100 !
#584
b11101 !
#592
b11110 !
#600
b11111 !
#608
b100000 !
#616
b100001 !
#624
b100010 !
#632
b100011 !
#640
b100100 !
#648
b100101 !
#656
b100110 !
#664
b100111 !
#672
b101000 !
#680
b101001 !
#688
b101010 !
#696
b101011 !
#704
b101100 !
#712
b101101 !
#720
b101110 !
#728
b101111 !
#736
b110000 !
#744
b110001 !
#752
b110010 !
#760
b110011 !
#768
b110100 !
#776
b110101 !
#784
b110110 !
#792
b110111 !
#800
b1110100 !
0)
#808
b1011000 !
#816
b10101001 !
#824
b1011110 !
#832
b11011101 !
0%
0$
#840
b1 "
b101 #
1&
