software/datatraces/phyconfig_gui.vcd
$date today $end
$timescale 1 ns $end
$scope module PHY_RX $end
$var integer 8 ! data $end
$var integer 1 " active $end
$var integer 1 # preamble $end
$var integer 1 $ RXCLK $end
$var integer 4 % PHYRX $end
$var integer 8 & PHYRX_combined $end
$upscope $end
$enddefinitions $end
#0
$dumpvars
bx !
x"
x#
x$
bx %
bx &
$end
#8
b11011101 !
0"
0#
0$
b1111 %
b11110000 &
#16
1$
#24
b11111111 !
0$
b11111111 &
#32
1$
b101 %
#40
0$
b1010101 &
#48
1$
#56
b1010101 !
0$
#64
1$
#72
0$
#80
1$
#88
0$
#96
1$
#104
0$
#112
1$
#120
0$
#128
1$
#136
1#
0$
#144
1$
#152
0$
b1101 %
b11010101 &
#160
1$
#168
b11010101 !
0$
b1110 %
b11101101 &
#176
1$
b100 %
#184
b11101101 !
1"
0$
b1 %
b10100 &
#192
1$
b11 %
#200
b10100 !
0$
b110011 &
#208
1$
b100 %
#216
b110011 !
0$
b1000100 &
#224
1$
b101 %
#232
b1000100 !
0$
b1010101 &
#240
1$
b1011 %
#248
b1010101 !
0$
b10111011 &
#256
1$
b100 %
#264
b10111011 !
0$
b101 %
b1010100 &
#272
1$
b1011 %
#280
b1010100 !
0$
b1010 %
b10101011 &
#288
1$
#296
b10101011 !
0$
b11 %
b111010 &
#304
1$
b10 %
#312
b111010 !
0$
b1100 %
b11000010 &
#320
1$
b1011 %
#328
b11000010 !
0$
b101 %
b1011011 &
#336
1$
b1111 %
#344
b1011011 !
0$
b11111111 &
#352
1$
b1000 %
#360
b11111111 !
0$
b0 %
b1000 &
#368
1$
#376
b1000 !
0$
b0 &
#384
1$
b101 %
#392
b0 !
0$
b100 %
b1000101 &
#400
1$
b0 %
#408
b1000101 !
0$
b0 &
#416
1$
#424
b0 !
0$
#432
1$
b100 %
#440
0$
b101 %
b1010100 &
#448
1$
b1011 %
#456
b1010100 !
0$
b1100 %
b11001011 &
#464
1$
b1101 %
#472
b11001011 !
0$
b1110 %
b11101101 &
#480
1$
b0 %
#488
b11101101 !
0$
b100 %
b1000000 &
#496
1$
b0 %
#504
b1000000 !
0$
b0 &
#512
1$
#520
b0 !
0$
b100 %
b1000000 &
#528
1$
b1 %
#536
b1000000 !
0$
b0 %
b1 &
#544
1$
b1100 %
#552
b1 !
0$
b1110 %
b11101100 &
#560
1$
b1000 %
#568
b11101100 !
0$
b1001 %
b10011000 &
#576
1$
b0 %
#584
b10011000 !
0$
b1100 %
b11000000 &
#592
1$
b1000 %
#600
b11000000 !
0$
b1010 %
b10101000 &
#608
1$
b0 %
#616
b10101000 !
0$
b0 &
#624
1$
b1010 %
#632
b0 !
0$
b0 %
b1010 &
#640
1$
#648
b1010 !
0$
b1100 %
b11000000 &
#656
1$
b1000 %
#664
b11000000 !
0$
b1010 %
b10101000 &
#672
1$
b0 %
#680
b10101000 !
0$
b0 &
#688
1$
b1000 %
#696
b0 !
0$
b1100 %
b11001000 &
#704
1$
b1000 %
#712
b11001000 !
0$
b0 %
b1000 &
#720
1$
#728
b1000 !
0$
b0 &
#736
1$
b1 %
#744
b0 !
0$
b1111 %
b11110001 &
#752
1$
b1000 %
#760
b11110001 !
0$
b0 %
b1000 &
#768
1$
#776
b1000 !
0$
b0 &
#784
1$
b1010 %
#792
b0 !
0$
b0 %
b1010 &
#800
1$
b1010 %
#808
b1010 !
0$
b100 %
b1001010 &
#816
1$
b111 %
#824
b1001010 !
0$
b1100 %
b11000111 &
#832
1$
b10 %
#840
b11000111 !
0$
b101 %
b1010010 &
#848
1$
b1110 %
#856
b1010010 !
0$
b111 %
b1111110 &
#864
1$
b0 %
#872
b1111110 !
0$
b0 &
#880
1$
b110 %
#888
b0 !
0$
b1100110 &
#896
1$
b0 %
#904
b1100110 !
0$
b0 &
#912
1$
#920
b0 !
0$
#928
1$
#936
0$
#944
1$
#952
0$
#960
1$
b110 %
#968
0$
b1010 %
b10100110 &
#976
1$
b1110 %
#984
b10100110 !
0$
b110 %
b1101110 &
#992
1$
b100 %
#1000
b1101110 !
0$
b0 %
b100 &
#1008
1$
#1016
b100 !
0$
b0 &
#1024
1$
#1032
b0 !
0$
#1040
1$
#1048
0$
#1056
1$
#1064
0$
#1072
1$
#1080
0$
#1088
1$
#1096
0$
b1 %
b10000 &
#1104
1$
#1112
b10000 !
0$
b10001 &
#1120
1$
b10 %
#1128
b10001 !
0$
b1 %
b10010 &
#1136
1$
b11 %
#1144
b10010 !
0$
b1 %
b10011 &
#1152
1$
b100 %
#1160
b10011 !
0$
b1 %
b10100 &
#1168
1$
b101 %
#1176
b10100 !
0$
b1 %
b10101 &
#1184
1$
b110 %
#1192
b10101 !
0$
b1 %
b10110 &
#1200
1$
b111 %
#1208
b10110 !
0$
b1 %
b10111 &
#1216
1$
b1000 %
#1224
b10111 !
0$
b1 %
b11000 &
#1232
1$
b1001 %
#1240
b11000 !
0$
b1 %
b11001 &
#1248
1$
b1010 %
#1256
b11001 !
0$
b1 %
b11010 &
#1264
1$
b1011 %
#1272
b11010 !
0$
b1 %
b11011 &
#1280
1$
b1100 %
#1288
b11011 !
0$
b1 %
b11100 &
#1296
1$
b1101 %
#1304
b11100 !
0$
b1 %
b11101 &
#1312
1$
b1110 %
#1320
b11101 !
0$
b1 %
b11110 &
#1328
1$
b1111 %
#1336
b11110 !
0$
b1 %
b11111 &
#1344
1$
b0 %
#1352
b11111 !
0$
b10 %
b100000 &
#1360
1$
b1 %
#1368
b100000 !
0$
b10 %
b100001 &
#1376
1$
#1384
b100001 !
0$
b100010 &
#1392
1$
b11 %
#1400
b100010 !
0$
b10 %
b100011 &
#1408
1$
b100 %
#1416
b100011 !
0$
b10 %
b100100 &
#1424
1$
b101 %
#1432
b100100 !
0$
b10 %
b100101 &
#1440
1$
b110 %
#1448
b100101 !
0$
b10 %
b100110 &
#1456
1$
b111 %
#1464
b100110 !
0$
b10 %
b100111 &
#1472
1$
b1000 %
#1480
b100111 !
0$
b10 %
b101000 &
#1488
1$
b1001 %
#1496
b101000 !
0$
b10 %
b101001 &
#1504
1$
b1010 %
#1512
b101001 !
0$
b10 %
b101010 &
#1520
1$
b1011 %
#1528
b101010 !
0$
b10 %
b101011 &
#1536
1$
b1100 %
#1544
b101011 !
0$
b10 %
b101100 &
#1552
1$
b1101 %
#1560
b101100 !
0$
b10 %
b101101 &
#1568
1$
b1110 %
#1576
b101101 !
0$
b10 %
b101110 &
#1584
1$
b1111 %
#1592
b101110 !
0$
b10 %
b101111 &
#1600
1$
b0 %
#1608
b101111 !
0$
b11 %
b110000 &
#1616
1$
b1 %
#1624
b110000 !
0$
b11 %
b110001 &
#1632
1$
b10 %
#1640
b110001 !
0$
b11 %
b110010 &
#1648
1$
#1656
b110010 !
0$
b110011 &
#1664
1$
b100 %
#1672
b110011 !
0$
b11 %
b110100 &
#1680
1$
b101 %
#1688
b110100 !
0$
b11 %
b110101 &
#1696
1$
b110 %
#1704
b110101 !
0$
b11 %
b110110 &
#1712
1$
b111 %
#1720
b110110 !
0$
b11 %
b110111 &
#1728
1$
b111 %
#1736
b110111 !
0$
b1111 %
b11110111 &
#1744
1$
#1752
b11110111 !
0$
b101 %
b1011111 &
#1760
1$
b100 %
#1768
b1011111 !
0$
b10 %
b100100 &
#1776
1$
b100 %
#1784
b100100 !
0$
b1110 %
b11100100 &
#1792
1$
b1101 %
#1800
b11100100 !
0$
b11011101 &
#1808
1$
#1816
b11011101 !
0"
0$
#1824
1$
#1832
0#
0$
