software/datatraces/phyconfig_gui_HS.vcd
$date today $end
$timescale 1 ps $end
$scope module PHY_RX $end
$var integer 8 ! PHY_RX $end
$var integer 1 " DV $end
$var integer 1 # RXCLK $end
$var integer 1 $ sample_clk $end
$var integer 4 % data_wireL $end
$var integer 4 & data_wireH $end
$var integer 8 ' data_wire $end
$upscope $end
$enddefinitions $end
#0
$dumpvars
bx !
x"
x#
x$
bx %
bx &
bx '
$end
#1333
b1111 !
1"
0#
0$
b0 %
b1111 &
b0 '
#2666
1$
b1111 %
#3999
0"
0$
#5332
1#
1$
b11111111 '
#6665
0$
#7998
1$
#9331
1"
0$
#10664
0#
1$
#11997
b101 !
0$
#13330
1$
#14663
1#
0$
#15996
1$
#17329
0$
b101 &
#18662
0#
1$
b101 %
#19995
0$
#21328
1$
#22661
1#
0$
b1010101 '
#23994
1$
#25327
0$
#26660
1$
#27993
0#
0$
#29326
1$
#30659
0$
#31992
1#
1$
#33325
0$
#34658
1$
#35991
0#
0$
#37324
1$
#38657
0$
#39990
1#
1$
#41323
0$
#42656
1$
#43989
0$
#45322
0#
1$
#46655
0$
#47988
1$
#49321
1#
0$
#50654
1$
#51987
0$
#53320
0#
1$
#54653
0$
#55986
1$
#57319
1#
0$
#58652
1$
#59985
0$
#61318
1$
#62651
0#
0$
#63984
1$
#65317
0$
#66650
1#
1$
#67983
0$
#69316
1$
#70649
0#
0$
#71982
1$
#73315
0$
#74648
1$
#75981
1#
0$
#77314
b1101 !
1$
#78647
0$
b1101 &
#79980
0#
1$
#81313
0$
#82646
1$
#83979
1#
0$
b11010101 '
#85312
1$
#86645
b1110 !
0$
b1110 &
#87978
0#
1$
b1101 %
#89311
b1100 !
0$
#90644
b100 !
1$
#91977
0$
#93310
1#
1$
b11101101 '
#94643
b1 !
0$
b1 &
#95976
1$
b100 %
#97309
0#
0$
#98642
b11 !
1$
#99975
0$
#101308
1#
1$
b10100 '
#102641
0$
b11 &
#103974
1$
#105307
0$
#106640
0#
1$
b11 %
#107973
b100 !
0$
#109306
1$
#110639
1#
0$
b110011 '
#111972
1$
#113305
0$
b100 &
#114638
0#
1$
b100 %
#115971
0$
#117304
b101 !
1$
#118637
1#
0$
b1000100 '
#119970
1$
#121303
0$
b101 &
#122636
1$
b101 %
#123969
0#
0$
#125302
b1011 !
1$
#126635
0$
#127968
1#
1$
b1010101 '
#129301
0$
b1011 &
#130634
1$
b1011 %
#131967
0#
0$
#133300
b1101 !
1$
#134633
b100 !
0$
#135966
1#
1$
b10111011 '
#137299
0$
#138632
b101 !
1$
#139965
0$
b101 &
#141298
0#
1$
b100 %
#142631
b1011 !
0$
#143964
1$
#145297
1#
0$
b1010100 '
#146630
1$
#147963
b1010 !
0$
b1010 &
#149296
0#
1$
b1011 %
#150629
0$
#151962
1$
#153295
0$
#154628
1#
1$
b10101011 '
#155961
b11 !
0$
b11 &
#157294
1$
b1010 %
#158627
0#
0$
#159960
b10 !
1$
#161293
0$
#162626
1#
1$
b111010 '
#163959
b1110 !
0$
b1100 &
#165292
b1100 !
1$
b10 %
#166625
0#
0$
#167958
b1010 !
1$
#169291
b1011 !
0$
#170624
1$
#171957
1#
0$
b11000010 '
#173290
b101 !
1$
#174623
0$
b101 &
#175956
0#
1$
b1011 %
#177289
b1111 !
0$
#178622
1$
#179955
1#
0$
b1011011 '
#181288
1$
#182621
0$
b1111 &
#183954
0#
1$
b1111 %
#185287
0$
#186620
b1000 !
1$
#187953
0$
#189286
1#
1$
b11111111 '
#190619
b0 !
0$
b0 &
#191952
1$
b1000 %
#193285
0#
0$
#194618
1$
#195951
0$
#197284
1#
1$
b1000 '
#198617
0$
#199950
1$
#201283
0$
#202616
0#
1$
b0 %
#203949
b101 !
0$
#205282
1$
#206615
1#
0$
b0 '
#207948
1$
#209281
b100 !
0$
b100 &
#210614
0#
1$
b101 %
#211947
0$
#213280
b0 !
1$
#214613
1#
0$
b1000101 '
#215946
1$
#217279
0$
b0 &
#218612
1$
b0 %
#219945
0#
0$
#221278
1$
#222611
0$
#223944
1#
1$
b0 '
#225277
0$
#226610
1$
#227943
0#
0$
#229276
b100 !
1$
#230609
0$
#231942
1$
#233275
1#
0$
#234608
b101 !
1$
#235941
0$
b101 &
#237274
0#
1$
b100 %
#238607
b100 !
0$
#239940
b110 !
1$
#241273
1#
0$
b1010100 '
#242606
b111 !
1$
#243939
0$
b111 &
#245272
0#
1$
b110 %
#246605
0$
#247938
b1010 !
1$
#249271
0$
#250604
b10 !
1#
1$
b1110110 '
#251937
0$
b10 &
#253270
1$
b1010 %
#254603
0#
0$
#255936
b0 !
1$
#257269
0$
#258602
1#
1$
b101010 '
#259935
b100 !
0$
b100 &
#261268
1$
b10 %
#262601
0#
0$
#263934
b0 !
1$
b0 %
#265267
0$
#266600
1$
#267933
1#
0$
b1000000 '
#269266
1$
#270599
0$
b0 &
#271932
0#
1$
#273265
0$
#274598
1$
#275931
1#
0$
b0 '
#277264
b100 !
1$
#278597
0$
b100 &
#279930
1$
#281263
0#
0$
#282596
b1 !
1$
#283929
0$
#285262
1#
1$
b1000000 '
#286595
0$
b0 &
#287928
b0 !
1$
b1 %
#289261
0#
0$
#290594
1$
#291927
b10 !
0$
#293260
1#
1$
b1 '
#294593
b0 !
0$
#295926
b100 !
1$
#297259
0$
b100 &
#298592
0#
1$
b10 %
#299925
b1100 !
0$
#301258
1$
#302591
1#
0$
b1000010 '
#303924
b101 !
1$
#305257
0$
b101 &
#306590
0#
1$
b1100 %
#307923
0$
#309256
b0 !
1$
#310589
0$
#311922
b100 !
1#
1$
b1011100 '
#313255
b1100 !
0$
b1100 &
#314588
1$
b0 %
#315921
0#
0$
#317254
b1000 !
1$
#318587
0$
#319920
1#
1$
b11000000 '
#321253
0$
b1010 &
#322586
b1010 !
1$
b1000 %
#323919
0#
0$
#325252
b1000 !
1$
#326585
b0 !
0$
#327918
1$
#329251
1#
0$
b10101000 '
#330584
1$
#331917
0$
b0 &
#333250
0#
1$
b0 %
#334583
b1010 !
0$
#335916
1$
#337249
1#
0$
b0 '
#338582
b0 !
1$
#339915
0$
#341248
0#
1$
b1010 %
#342581
0$
#343914
1$
#345247
0$
#346580
1#
1$
b1010 '
#347913
b1100 !
0$
b1100 &
#349246
1$
b0 %
#350579
0#
0$
#351912
b1000 !
1$
#353245
0$
#354578
1#
1$
b11000000 '
#355911
0$
b1110 &
#357244
b1010 !
1$
#358577
0$
b1010 &
#359910
b1000 !
0#
1$
b1000 %
#361243
b0 !
0$
#362576
1$
#363909
1#
0$
b10101000 '
#365242
1$
#366575
0$
b0 &
#367908
0#
1$
b0 %
#369241
0$
#370574
b1000 !
1$
#371907
1#
0$
b0 '
#373240
1$
#374573
b1100 !
0$
b1100 &
#375906
1$
b1000 %
#377239
0#
0$
#378572
b1000 !
1$
#379905
0$
#381238
1#
1$
b11001000 '
#382571
b0 !
0$
b0 &
#383904
1$
#385237
0#
0$
#386570
1$
#387903
0$
#389236
1$
#390569
1#
0$
b1000 '
#391902
1$
#393235
0$
#394568
0#
1$
b0 %
#395901
0$
#397234
1$
#398567
1#
0$
b0 '
#399900
b100 !
1$
#401233
b110 !
0$
b110 &
#402566
0#
1$
#403899
0$
#405232
b1111 !
1$
#406565
0$
#407898
1#
1$
b1100000 '
#409231
b1 !
0$
b1 &
#410564
1$
b1111 %
#411897
0#
0$
#413230
1$
#414563
b0 !
0$
#415896
1#
1$
b11111 '
#417229
0$
#418562
1$
#419895
0#
0$
b0 &
#421228
1$
b0 %
#422561
b1010 !
0$
#423894
1$
#425227
b1000 !
1#
0$
b0 '
#426560
b0 !
1$
#427893
0$
#429226
0#
1$
b1010 %
#430559
b1000 !
0$
#431892
b1001 !
1$
#433225
1#
0$
b1010 '
#434558
b1 !
1$
#435891
b100 !
0$
b100 &
#437224
1$
b1001 %
#438557
0#
0$
#439890
b1101 !
1$
#441223
0$
#442556
1#
1$
b1001001 '
#443889
b1 !
0$
b1 &
#445222
1$
b1101 %
#446555
0#
0$
#447888
b1101 !
1$
#449221
b1110 !
0$
#450554
1#
1$
b11101 '
#451887
b1100 !
0$
#453220
b1001 !
1$
#454553
0$
b1001 &
#455886
0#
1$
b1110 %
#457219
b1100 !
0$
#458552
1$
#459885
1#
0$
b10011110 '
#461218
b111 !
1$
#462551
0$
b111 &
#463884
0#
1$
b1100 %
#465217
b101 !
0$
#466550
b0 !
1$
#467883
0$
#469216
1#
1$
b1111100 '
#470549
0$
b0 &
#471882
1$
b0 %
#473215
0#
0$
#474548
b110 !
1$
#475881
0$
#477214
1#
1$
b0 '
#478547
0$
b110 &
#479880
1$
b10 %
#481213
0#
0$
#482546
1$
b110 %
#483879
b0 !
0$
#485212
1$
#486545
1#
0$
b1100110 '
#487878
1$
#489211
0$
b0 &
#490544
0#
1$
b0 %
#491877
0$
#493210
1$
#494543
1#
0$
b0 '
#495876
1$
#497209
0$
#498542
0#
1$
#499875
0$
#501208
1$
#502541
0$
#503874
1#
1$
#505207
0$
#506540
1$
#507873
0#
0$
#509206
1$
#510539
0$
#511872
1#
1$
#513205
0$
#514538
1$
#515871
0$
#517204
0#
1$
#518537
0$
#519870
1$
#521203
1#
0$
#522536
b1101 !
1$
#523869
b1111 !
0$
b1111 &
#525202
0#
1$
#526535
b11 !
0$
#527868
1$
#529201
1#
0$
b11110000 '
#530534
b1 !
1$
#531867
b0 !
0$
b0 &
#533200
1$
b11 %
#534533
0#
0$
#535866
b1 !
1$
#537199
0$
#538532
1#
1$
b11 '
#539865
0$
#541198
b0 !
1$
b1 %
#542531
0#
0$
#543864
1$
#545197
0$
#546530
1$
#547863
1#
0$
b1 '
#549196
1$
#550529
0$
#551862
0#
1$
b0 %
#553195
0$
#554528
1$
#555861
1#
0$
b0 '
#557194
1$
#558527
0$
#559860
0#
1$
#561193
0$
#562526
1$
#563859
0$
#565192
1#
1$
#566525
0$
#567858
1$
#569191
0#
0$
#570524
1$
#571857
0$
#573190
1#
1$
#574523
0$
#575856
1$
#577189
0$
#578522
0#
1$
#579855
0$
#581188
1$
#582521
1#
0$
#583854
1$
#585187
0$
#586520
0#
1$
#587853
0$
#589186
1$
#590519
1#
0$
#591852
1$
#593185
b1 !
0$
b1 &
#594518
1$
#595851
0#
0$
#597184
1$
#598517
0$
#599850
1#
1$
b10000 '
#601183
0$
#602516
1$
b1 %
#603849
0#
0$
#605182
1$
#606515
b10 !
0$
#607848
1#
1$
b10001 '
#609181
b0 !
0$
#610514
b1 !
1$
#611847
0$
#613180
0#
1$
b10 %
#614513
b11 !
0$
#615846
1$
#617179
1#
0$
b10010 '
#618512
b1 !
1$
#619845
0$
#621178
0#
1$
b11 %
#622511
0$
#623844
b100 !
1$
#625177
0$
#626510
1#
1$
b10011 '
#627843
b1 !
0$
#629176
1$
b100 %
#630509
0#
0$
#631842
b101 !
1$
#633175
0$
#634508
1#
1$
b10100 '
#635841
b1 !
0$
#637174
1$
#638507
0#
0$
#639840
b101 !
1$
b101 %
#641173
b110 !
0$
#642506
1$
#643839
b100 !
1#
0$
b10101 '
#645172
b1 !
1$
#646505
0$
#647838
0#
1$
b110 %
#649171
b111 !
0$
#650504
1$
#651837
1#
0$
b10110 '
#653170
b1 !
1$
#654503
0$
#655836
0#
1$
b111 %
#657169
0$
#658502
b1000 !
1$
#659835
0$
#661168
1#
1$
b10111 '
#662501
b1 !
0$
#663834
1$
b1000 %
#665167
0#
0$
#666500
b1001 !
1$
#667833
0$
#669166
1#
1$
b11000 '
#670499
b1 !
0$
#671832
1$
#673165
0$
#674498
0#
1$
b1001 %
#675831
b1010 !
0$
#677164
1$
#678497
b1000 !
1#
0$
b11001 '
#679830
b1 !
1$
#681163
0$
#682496
0#
1$
b1010 %
#683829
b1011 !
0$
#685162
1$
#686495
1#
0$
b11010 '
#687828
b1 !
1$
#689161
0$
#690494
1$
b1011 %
#691827
0#
0$
#693160
b1100 !
1$
#694493
0$
#695826
1#
1$
b11011 '
#697159
b1 !
0$
#698492
1$
b1101 %
#699825
0#
0$
#701158
b1101 !
1$
b1100 %
#702491
0$
#703824
1$
#705157
b101 !
1#
0$
b11100 '
#706490
b1 !
1$
#707823
0$
#709156
0#
1$
b1101 %
#710489
b1101 !
0$
#711822
b1110 !
1$
#713155
1#
0$
b11101 '
#714488
b1 !
1$
#715821
0$
#717154
0#
1$
b1110 %
#718487
b101 !
0$
#719820
b1111 !
1$
#721153
0$
#722486
b1101 !
1#
1$
b11110 '
#723819
b1 !
0$
#725152
1$
b1111 %
#726485
0#
0$
#727818
1$
#729151
b0 !
0$
#730484
1#
1$
b11111 '
#731817
0$
b10 &
#733150
b10 !
1$
b111 %
#734483
0#
0$
#735816
b0 !
1$
b0 %
#737149
b1 !
0$
#738482
1$
#739815
1#
0$
b100000 '
#741148
b10 !
1$
#742481
0$
#743814
0#
1$
b1 %
#745147
0$
#746480
1$
#747813
1#
0$
b100001 '
#749146
1$
#750479
0$
#751812
1$
b10 %
#753145
0#
0$
#754478
b11 !
1$
#755811
0$
#757144
1#
1$
b100010 '
#758477
b10 !
0$
#759810
1$
b11 %
#761143
0#
0$
#762476
b110 !
1$
#763809
b100 !
0$
#765142
1#
1$
b100011 '
#766475
b10 !
0$
#767808
1$
#769141
0$
#770474
0#
1$
b100 %
#771807
b101 !
0$
#773140
1$
#774473
1#
0$
b100100 '
#775806
b11 !
1$
#777139
b10 !
0$
#778472
0#
1$
b101 %
#779805
b110 !
0$
#781138
1$
#782471
1#
0$
b100101 '
#783804
1$
#785137
b10 !
0$
#786470
1$
b110 %
#787803
0#
0$
#789136
b111 !
1$
#790469
0$
#791802
1#
1$
b100110 '
#793135
b11 !
0$
#794468
b10 !
1$
b111 %
#795801
0#
0$
#797134
1$
#798467
b1000 !
0$
#799800
1$
#801133
b10 !
1#
0$
b100111 '
#802466
1$
#803799
0$
#805132
0#
1$
b1000 %
#806465
b1000 !
0$
#807798
b1001 !
1$
#809131
1#
0$
b101000 '
#810464
b11 !
1$
#811797
b10 !
0$
#813130
0#
1$
b1001 %
#814463
0$
#815796
b1010 !
1$
#817129
0$
#818462
1#
1$
b101001 '
#819795
b10 !
0$
#821128
1$
b1010 %
#822461
0#
0$
#823794
b1010 !
1$
#825127
b1011 !
0$
#826460
1#
1$
b101010 '
#827793
b11 !
0$
#829126
b10 !
1$
#830459
0#
0$
#831792
1$
b1011 %
#833125
b1100 !
0$
#834458
1$
#835791
b1110 !
1#
0$
b101011 '
#837124
b10 !
1$
#838457
0$
#839790
0#
1$
b1100 %
#841123
b1100 !
0$
#842456
b1101 !
1$
#843789
1#
0$
b101100 '
#845122
b11 !
1$
#846455
b10 !
0$
#847788
1$
b1101 %
#849121
0#
0$
#850454
b1110 !
1$
#851787
0$
#853120
1#
1$
b101101 '
#854453
b10 !
0$
#855786
1$
b1110 %
#857119
0#
0$
#858452
b1110 !
1$
#859785
b1111 !
0$
#861118
1#
1$
b101110 '
#862451
b111 !
0$
#863784
b10 !
1$
#865117
0$
#866450
0#
1$
b1111 %
#867783
b0 !
0$
#869116
1$
#870449
1#
0$
b101111 '
#871782
b11 !
1$
#873115
0$
b11 &
#874448
0#
1$
b0 %
#875781
b1 !
0$
#877114
1$
#878447
0$
#879780
b11 !
1#
1$
b110000 '
#881113
0$
#882446
1$
b1 %
#883779
0#
0$
#885112
1$
#886445
b10 !
0$
#887778
1#
1$
b110001 '
#889111
b11 !
0$
#890444
1$
#891777
0#
0$
#893110
1$
b10 %
#894443
0$
#895776
1$
#897109
1#
0$
b110010 '
#898442
1$
#899775
0$
#901108
0#
1$
b11 %
#902441
b111 !
0$
#903774
b100 !
1$
#905107
1#
0$
b110011 '
#906440
b10 !
1$
#907773
b11 !
0$
#909106
1$
b100 %
#910439
b111 !
0#
0$
#911772
b101 !
1$
#913105
0$
#914438
1#
1$
b110100 '
#915771
b11 !
0$
#917104
1$
b101 %
#918437
0#
0$
#919770
b111 !
1$
#921103
b110 !
0$
#922436
1#
1$
b110101 '
#923769
0$
#925102
b11 !
1$
#926435
0$
#927768
b111 !
0#
1$
b110 %
#929101
0$
#930434
1$
#931767
1#
0$
b110110 '
#933100
b11 !
1$
#934433
0$
#935766
0#
1$
b111 %
#937099
b111 !
0$
#938432
b101 !
1$
#939765
1#
0$
b110111 '
#941098
b111 !
1$
#942431
0$
b111 &
#943764
1$
b101 %
#945097
0#
0$
#946430
b1111 !
1$
#947763
0$
#949096
1#
1$
b1110101 '
#950429
b11 !
0$
b11 &
#951762
1$
b1111 %
#953095
0#
0$
#954428
b1111 !
1$
#955761
b1110 !
0$
#957094
1#
1$
b111111 '
#958427
0$
#959760
b1111 !
1$
#961093
0$
b1111 &
#962426
0#
1$
b1110 %
#963759
b111 !
0$
#965092
1$
#966425
1#
0$
b11111110 '
#967758
b11 !
1$
#969091
b0 !
0$
b0 &
#970424
0#
1$
b111 %
#971757
b100 !
0$
#973090
b1101 !
1$
#974423
0"
0$
#975756
1#
1$
b111 '
#977089
0$
b1101 &
#978422
1$
b1101 %
#979755
0#
0$
#981088
1$
#982421
0$
#983754
1#
1$
b11011101 '
